robot,5
xavg,99
yavg,0
spray_navs1_drive_speed,0
spray_navs2_drive_speed,0
spray_navs3_drive_speed,0
spray_navs2_be_p,0
spray_navs2_be_d,0
spray_navs3_be_p,0
spray_navs3_be_d,0
spray_navs3_be_wp_distance,0
spray_navs3_wp_dist_threshold,0
spray_nav_loop_sleep_time,0
drive_k_p,0
drive_k_d,0
drive_max_pwm_output,0
drive_loop_delay,0
compass_offset,0
